#164 - Naxos | 

owner = A01
controller = A01
add_core = A01
add_core = A69
culture = redfoot_halfling
religion = regent_court

hre = no

base_tax = 4
base_production = 3
base_manpower = 1

trade_goods = cloth
capital = ""

is_city = yes








