#352 - Gafsa

owner = A32
controller = A32
add_core = A32
culture = moon_elf
religion = elven_forebears

hre = no

base_tax = 11
base_production = 11
base_manpower = 7

trade_goods = glass
center_of_trade = 2

capital = ""

is_city = yes
fort_15th = yes 








