# No previous file for Ceram
owner = F20
controller = F20
add_core = F20
culture = surani
religion = bulwari_sun_cult

hre = no

base_tax = 2
base_production = 2
base_manpower = 1

trade_goods = wool

capital = ""

is_city = yes













add_permanent_province_modifier = {
	name = elven_minority_integrated_small
	duration = -1
}