# No previous file for Changsha
owner = F27
controller = F27
add_core = F27
add_core = F26
culture = gelkar
religion = bulwari_sun_cult


base_tax = 2
base_production = 2
base_manpower = 2

trade_goods = incense

capital = ""

is_city = yes









