g_railskulker_column_1 = {
	slot = 1
	generic = yes
	ai = yes
	potential = {
		tag = H75
	}
	has_country_shield = yes

	g_raising_new_war_parties = {
		icon = mission_fortify_rajputana
		position = 1
		required_missions = {

		}
		trigger = {
			mil_power = 50
			is_at_war = yes
		}

		effect = {
			add_mil_power = -50
			capital_scope = {
				add_unit_construction = {
					type = infantry
					amount = 5
					speed = 0.01
					cost = 0
				}
			}
		}
	}
	g_clan_levies = {
		icon = mission_fortify_rajputana
		position = 2
		required_missions = {
			g_raising_new_war_parties
		}
		trigger = {
			OR = {
				custom_trigger_tooltip = {
					tooltip = railskulker_fully_annex_two_goblin_countries
					calc_true_if = {
						all_owned_province = {
							any_core_country = {
								NOT = { tag = FROM }
								all_core_province = {
									owned_by = FROM
								}
								primary_culture = cave_goblin
							}
						}
						amount = 2
					}
				}
				custom_trigger_tooltip = {
					tooltip = railskulker_have_two_goblin_countries_as_subjects
					calc_true_if = {
						all_subject_country = {
							primary_culture = cave_goblin
						}
						amount = 2
					}
				}
				hidden_trigger = { #the ai will never fucking get the conditions right
					AND = {
						ai = yes
						is_year = 1454
					}
				}
			}
		}
		
		effect = {
			country_event = {
				id = railskulker.5
				days = 0
			}
			swap_non_generic_missions = yes
		}
	}
}

railskulker_own_army_column_1 = {
	slot = 1
	generic = no
	ai = yes
	potential = {
		tag = H75
		has_country_flag = railskulker_own_army
	}
	has_country_shield = yes

	g_the_makings_of_a_railskulker_army = {
		icon = mission_fortify_rajputana
		position = 3
		required_missions = {
			g_clan_levies
		}
		trigger = {
			mil_tech = 7
			army_professionalism = 0.3
		}
		
		effect = {
			custom_tooltip = railskulker_this_will_allow_us_to_use_our_techies_for_our_military
			country_event = {
				id = railskulker.2
				days = 0
			}
		}
	}
	g_developing_an_engineer_corps = {
		icon = mission_fortify_rajputana
		position = 4
		required_missions = {
			g_the_makings_of_a_railskulker_army
		}
		trigger = {
			mil_power = 200
			army_professionalism = 0.5
			mil_tech = 11
			has_global_modifier_value = {
				which = siege_ability
				value = 0.25
			}
		}
		
		effect = {
			custom_tooltip = railskulker_this_will_give_more_military_engineering
			add_mil_power = -200
			country_event = {
				id = railskulker.7
				days = 0 
			}
		}
	}
	g_reforming_the_artillery_yards = {
		icon = mission_fortify_rajputana
		position = 5
		required_missions = {
			g_developing_an_engineer_corps
		}
		trigger = {
			mil_power = 200
			army_professionalism = 0.75
			num_of_artillery = 60
			mil_tech = 13
		}
		
		effect = {
			custom_tooltip = railskulker_this_will_give_more_military_engineering
			add_mil_power = -200
			country_event = {
				id = railskulker.8
				days = 0 
			}
		}
	}
	g_a_technocratic_army = {
		icon = mission_fortify_rajputana
		position = 6
		required_missions = {
			g_reforming_the_artillery_yards
		}
		trigger = {
			mil_power = 200
			army_professionalism = 1
			num_of_artillery = 100
			OR = {
				has_reform = technocracy_republic_reform
				mil_tech = 16
			}
		}
		
		effect = {
			custom_tooltip = railskulker_this_will_improve_our_military_engineering
			add_mil_power = -200
			country_event = {
				id = railskulker.9
				days = 0 
			}
		}
	}
}

railskulker_clan_army_column_1 = {
	slot = 1
	generic = no
	ai = yes
	potential = {
		tag = H75
		has_country_flag = railskulker_clan_army
	}
	has_country_shield = yes

	g_the_makings_of_a_clan_army = {
		icon = mission_fortify_rajputana
		position = 3
		required_missions = {
			g_clan_levies
		}
		trigger = {
			mil_tech = 7
			#num_of_march = 3
			calc_true_if = {
				all_subject_country = {
					march_of = FROM
				}
				amount = 3
			}
		}
		
		effect = {
			add_country_modifier = {
				name = railskulker_battleclan_liberty
				duration = -1
			}
		}
	}
	g_teaching_our_battleclans = {
		icon = mission_fortify_rajputana
		position = 4
		required_missions = {
			g_the_makings_of_a_clan_army
		}
		trigger = {
			any_subject_country = {
				tech_difference = 1
			}
			has_global_modifier_value = {
				which = vassal_forcelimit_bonus
				value = 0.2
			}
		}
		
		effect = {
			custom_tooltip = railskulker_this_will_improve_our_clan_levies
			every_subject_country = {
				add_mil_power = 200
				add_country_modifier = {
					name = railskulker_military_advisors
					duration = 7300
				}
			}
		}
	}
	g_reforming_the_levy = {
		icon = mission_fortify_rajputana
		position = 5
		required_missions = {
			g_teaching_our_battleclans
		}
		trigger = {
			army_size = 100
			#num_of_marches = 4
			calc_true_if = {
				all_subject_country = {
					march_of = FROM
				}
				amount = 4
			}
		}
		
		effect = {
			custom_tooltip = railskulker_this_will_improve_our_clan_levies
			add_country_modifier = {
				name = railskulker_improved_levies
				duration = -1
			}
		}
	}
	g_a_goblin_army = {
		icon = mission_fortify_rajputana
		position = 6
		required_missions = {
			g_reforming_the_levy
		}
		trigger = {
			army_size = 150
			#num_of_marches = 5
			calc_true_if = {
				all_subject_country = {
					march_of = FROM
				}
				amount = 5
			}
			OR = {
				has_reform = technocracy
				mil_tech = 16
			}
		}
		
		effect = {
			custom_tooltip = railskulker_this_will_improve_our_clan_levies
			country_event = {
				id = railskulker.10
				days = 0
			}
		}
	}
}

railskulker_science_column_1 = {
	slot = 1
	generic = no
	ai = yes
	potential = {
		tag = H75
	}
	has_country_shield = yes

	g_copying_the_dwarves = {
		icon = mission_fortify_rajputana
		position = 7
		required_missions = {

		}
		trigger = {
			owns = 2931
			if = {
				limit = { ai = yes } #god the AI are too dumb to actually take the admin tech when they can
				adm_power = 1000
				ai = yes
			}
			else = {
				OR = {
					has_institution = feudalism
					AND = {
						adm_power = 100
						adm_tech = 3
						NOT = {
							has_institution = feudalism
						}
					}
				}
				if = {
					limit = { ai = yes } #god the AI are too dumb to actually take the admin tech when they can
					adm_power = 1000
					ai = yes
				}
				else = {
					philosopher = 2
				}
			}
		}

		effect = {
			if = {
				limit = {
					has_institution = feudalism
				}
				change_innovativeness = 10
				add_adm_power = 10
				add_dip_power = 10
				add_mil_power = 10
			}
			else_if = {
				limit = {
					ai = yes
				}
				if = {
					limit = {
						adm_power = 1000
					}
					add_adm_power = -859
				}
				add_adm_power = 100
				2931 = {
					add_next_institution_embracement = 100
				}
			}
			else = {
				add_adm_power = -100
				2931 = {
					add_institution_embracement = {
						which = feudalism
						value = 100
					}
				}
			}
		}
	}
	g_spreading_literacy = {
		icon = mission_fortify_rajputana
		position = 8
		required_missions = {
			g_copying_the_dwarves
		}
		trigger = {
			owns = 2931
			if = {
				limit = {
					is_lacking_institutions = yes
				}
				full_idea_group = innovativeness_ideas
				if = {
					limit = {
						has_dlc = "Rule Britannia"
					}
					innovativeness = 25
				}
			}
			else = {
				full_idea_group = innovativeness_ideas
				#is_lacking_institutions = no
			}
		}

		effect = {
			if = {
				limit = {
					is_lacking_institutions = yes
				}
				2931 = {
					add_next_institution_embracement = 50
				}
			}
			else = {
				change_innovativeness = 10
				add_adm_power = 10
				add_dip_power = 10
				add_mil_power = 10
			}
		}
	}
	g_the_applications_of_bombs = {
		icon = mission_fortify_rajputana
		position = 9
		required_missions = {
			g_spreading_literacy
		}
		trigger = {
			if = {
				limit = {
					has_dlc = "Rule Britannia"
				}
				innovativeness = 35
			}
			OR = {
				mil_tech = 14
				has_global_modifier_value = {
					which = fire_damage
					value = 0.2
				}
			}
		}

		effect = {
			country_event = {
				id = railskulker.11
				days = 7300
			}
		}
	}
	g_death_merchants_of_escann = {
		icon = mission_fortify_rajputana
		position = 10
		required_missions = {
			g_the_applications_of_bombs
		}
		trigger = {
			if = {
				limit = {
					has_dlc = "Rule Britannia"
				}
				innovativeness = 50
			}
			any_known_country = {
				has_opinion = {
					who = FROM
					value = 100
				}
				capital_scope = {
					continent = europe
				}
			}
		}

		effect = {
			add_years_of_income = 2
			every_country = {
				limit = {
					capital_scope = { continent = europe }
					has_opinion = {
						who = FROM
						value = 0
					}
				}
				add_opinion = {
					who = FROM
					modifier = goblin_death_merchants_of_escann
				}
			}
		}
	}
	g_rebuilding_the_rails = {
		icon = mission_fortify_rajputana
		position = 11
		required_missions = {
			g_death_merchants_of_escann
		}
		trigger = {
			any_owned_province = {
				OR = {
					has_province_modifier = restored_rail
					has_province_modifier = advanced_rail
				}
			}
		}

		effect = {
			add_adm_power = 100
			change_innovativeness = 10
		}
	}
}

railskulker_column_2 = {
	slot = 2
	generic = no
	ai = yes
	potential = {
		tag = H75
	}
	has_country_shield = yes

	g_fortifying_our_lair = {
		icon = mission_fortify_rajputana
		position = 1
		required_missions = {

		}
		trigger = {
			OR = {
				treasury = 100
				capital_scope = { has_building = fort_15th }
			}
		}

		effect = {
			if = {
				limit = {
					capital_scope = { has_building = fort_15th }
				}
				add_mil_power = 100
			}
			else = {
				capital_scope = {
					add_building_construction = {
						building = fort_15th
						speed = 0.5
						cost = 0.5
					}
				}
			}
		}
	}

	g_a_base_for_our_raiders = {
		icon = mission_fortify_rajputana
		position = 3
		required_missions = {
			g_fortifying_our_lair
		}
		trigger = {
			capital_scope = {
				base_manpower = 15
			}
		}

		effect = {
			change_government_reform_progress = 15
		}
	}
	g_enlarging_our_tax_base = {
		icon = mission_fortify_rajputana
		position = 4
		required_missions = {
			g_a_base_for_our_raiders
		}
		trigger = {
			capital_scope = {
				base_tax = 15
			}
		}

		effect = {
			change_government_reform_progress = 15
		}
	}
	g_a_base_production_of_goods = {
		icon = mission_fortify_rajputana
		position = 5
		required_missions = {
			g_enlarging_our_tax_base
		}
		trigger = {
			capital_scope = {
				base_production = 15
			}
		}

		effect = {
			change_government_reform_progress = 15
		}
	}
	g_our_own_infrastructure = {
		icon = mission_fortify_rajputana
		position = 6
		required_missions = {
			g_a_base_production_of_goods
		}
		trigger = {
			OR = {
				barracks = 10
				training_fields = 5
			}
			OR = {
				temple = 10
				cathedral = 5
			}
			OR = {
				workshop = 10
				counting_house = 5
			}
			OR = {
				marketplace = 10
				trade_depot = 5
			}
		}

		effect = {
			change_government_reform_progress = 25
		}
	}
	g_formalizing_our_government = {
		icon = mission_fortify_rajputana
		position = 7
		required_missions = {
			g_a_base_production_of_goods
			g_our_own_infrastructure
		}
		trigger = {
			is_tribal = no
		}

		effect = {
			add_country_modifier = {
				name = cave_goblin_reforming
				duration = 9125
			}
			override_country_name = ZELEZKLAN # Railway Clan
		}
	}

	g_technocratic_rule = {
		icon = mission_fortify_rajputana
		position = 9
		required_missions = {
			g_formalizing_our_government
		}
		trigger = {
			if = {
				limit = {
					has_dlc = "Rule Britannia"
				}
				innovativeness = 100
			}
			has_reform = technocracy_republic_reform
		}
		effect = {
			add_country_modifier = {
				name = railskulker_embracing_technocracy
				duration = 7300
			}
		}
	}

	g_railskulker_governance = {
		icon = mission_fortify_rajputana
		position = 10
		required_missions = {
			g_technocratic_rule
		}
		trigger = {
			AND = {
				has_reform = technocracy_republic_reform
				has_reform = republicanism_reform
				has_reform = frequent_elections_reform
				has_reform = administrative_divisions_reform
				has_reform = presidential_reform
			}
		}

		effect = {
			change_government_reform_progress = 100
			add_adm_power = 100
			add_stability = 1
		}
	}
}

railskulker_column_3 = {
	slot = 3
	generic = no
	ai = yes
	potential = {
		tag = H75
	}
	has_country_shield = yes

	g_crushing_rubies = {
		icon = mission_fortify_rajputana
		position = 1
		required_missions = {

		}
		trigger = {
			if = {
				limit = {
					OR = {
						ai = no
						H68 = { exists = no }
						war_with = H68
					}
				}
				at_war_with_religious_enemy = yes
			}
			else = {
				is_year = 1446
				any_neighbor_country = { tag = H68 }
			}
		}

		effect = {
			if = { #make the AI actually take provinces in the war
				limit = {
					ai = yes
				}
				if = {
					limit = { 
						any_neighbor_country = { tag = H68 }
					}
					declare_war_with_cb = {
						who = H68
						casus_belli = cb_monster_vs_civ
					}
				}
				random_known_country = {
					limit = {
						war_with = FROM
						tag = H68
					}
					every_owned_province = {
						add_permanent_claim = FROM
					}
				}
			}
			add_country_modifier = {
				name = railskulker_rubies
				duration = 3650
			}
		}
	}
	g_securing_our_southern_flank = {
		icon = mission_fortify_rajputana
		position = 2
		required_missions = {
			g_crushing_rubies
		}
		trigger = {
			H68 = { exists = no }
			I09 = { exists = no }
		}

		effect = {
			stunad_kozenad_area = {
				add_permanent_claim = FROM
			}
			
			travelers_refuge_area = {
				add_permanent_claim = FROM
			}
			
			westnest_area = {
				add_permanent_claim = FROM
			}
			
			eastnest_area = {
				add_permanent_claim = FROM
			}
			
			dwarovrod_15_17_area = {
				add_permanent_claim = FROM
			}
			
			azmak_area = {
				add_permanent_claim = FROM
			}

			jorkad_junction_area = {
				add_permanent_claim = FROM
			}
		}
	}
	g_a_long_way_to_the_south = {
		icon = mission_fortify_rajputana
		position = 3
		required_missions = {
			g_securing_our_southern_flank
		}
		trigger = {
			treasury = 150
			AND = {
				owns = 4101
				OR = {
					4101 = {
						OR = {
							has_building = fort_15th
							has_building = fort_16th
						}
					}
					NOT = {
						4101 = {
							OR = {
								has_building = fort_15th
								has_building = fort_16th
							}
						}
					}
				}
			}
			AND = {
				owns = 4237
				OR = {
					4237 = {
						OR = {
							has_building = fort_15th
							has_building = fort_16th
						}
					}
					NOT = {
						4237 = {
							OR = {
								has_building = fort_15th
								has_building = fort_16th
							}
						}
					}
				}
			}
			AND = {
				owns = 2963
				OR = {
					2963 = {
						OR = {
							has_building = fort_15th
							has_building = fort_16th
						}
					}
					NOT = {
						2963 = {
							OR = {
								has_building = fort_15th
								has_building = fort_16th
							}
						}
					}
				}
			}
			#H86 = { exists = no }
			#I10 = { exists = no }
		}

		effect = {
			if = {
				limit = {
					4101 = {
						NOT = {
							OR = {
								has_building = fort_15th
								has_building = fort_16th
							}
						}
					}
				}
				4101 = {
					add_building_construction = {
						building = fort_15th
						speed = 1
						cost = 0.5
					}
				}
			}
			else_if = {
				limit = {
					4101 = {
						has_building = fort_15th
					}
					mil_tech = 14
				}
				4101 = {
					add_building_construction = {
						building = fort_16th
						speed = 1
						cost = 0.5
					}
				}
			}
			else = {
				add_mil_power = 50
			}


			if = {
				limit = {
					4237 = {
						NOT = {
							OR = {
								has_building = fort_15th
								has_building = fort_16th
							}
						}
					}
				}
				4237 = {
					add_building_construction = {
						building = fort_15th
						speed = 1
						cost = 0.5
					}
				}
			}
			else_if = {
				limit = {
					4237 = {
						has_building = fort_15th
					}
					mil_tech = 14
				}
				4237 = {
					add_building_construction = {
						building = fort_16th
						speed = 1
						cost = 0.5
					}
				}
			}
			else = {
				add_mil_power = 50
			}

			if = {
				limit = {
					2963 = {
						NOT = {
							OR = {
								has_building = fort_15th
								has_building = fort_16th
							}
						}
					}
				}
				2963 = {
					add_building_construction = {
						building = fort_15th
						speed = 1
						cost = 0.5
					}
				}
			}
			else_if = {
				limit = {
					2963 = {
						has_building = fort_15th
					}
					mil_tech = 14
				}
				2963 = {
					add_building_construction = {
						building = fort_16th
						speed = 1
						cost = 0.5
					}
				}
			}
			else = {
				add_mil_power = 50
			}
		}
	}
	g_pushing_north = {
		icon = mission_fortify_rajputana
		position = 4
		required_missions = {
			g_a_long_way_to_the_south
		}
		trigger = {
			mil_tech = 9
			if = {
				limit = {
					NOT = {
						south_breach_area = {
							is_core = FROM
							type = all
						}
						
						riftway_area = {
							is_core = FROM
							type = all
						}
						
						dwarovrod_7_9_area = {
							is_core = FROM
							type = all
						}
						
						mithradhum_area = {
							is_core = FROM
							type = all
						}
						
						dwarovrod_10_12_area = {
							is_core = FROM
							type = all
						}
						goblins_bypass_area = {
							is_core = FROM
							type = all
						}
						
						dagrinrod_4_6_area = {
							is_core = FROM
							type = all
						}
						
						broken_dagger_pass_area = {
							is_core = FROM
							type = all
						}
						amldihr_area = {
							is_core = FROM
							type = all
						}
					}
				}
				dip_power = 200
			}
		}

		effect = {
			if = {
				limit = {
					NOT = {
						south_breach_area = {
							is_core = FROM
							type = all
						}
						
						riftway_area = {
							is_core = FROM
							type = all
						}
						
						dwarovrod_7_9_area = {
							is_core = FROM
							type = all
						}
						
						mithradhum_area = {
							is_core = FROM
							type = all
						}
						
						dwarovrod_10_12_area = {
							is_core = FROM
							type = all
						}
						goblins_bypass_area = {
							is_core = FROM
							type = all
						}
						
						dagrinrod_4_6_area = {
							is_core = FROM
							type = all
						}
						
						broken_dagger_pass_area = {
							is_core = FROM
							type = all
						}
						amldihr_area = {
							is_core = FROM
							type = all
						}
					}
				}
				add_dip_power = -200
				south_breach_area = {
					add_permanent_claim = FROM
				}
				
				riftway_area = {
					add_permanent_claim = FROM
				}
				
				dwarovrod_7_9_area = {
					add_permanent_claim = FROM
				}
				
				mithradhum_area = {
					add_permanent_claim = FROM
				}
				
				dwarovrod_10_12_area = {
					add_permanent_claim = FROM
				}
				goblins_bypass_area = {
					add_permanent_claim = FROM
				}
				
				dagrinrod_4_6_area = {
					add_permanent_claim = FROM
				}
				
				broken_dagger_pass_area = {
					add_permanent_claim = FROM
				}
				amldihr_area = {
					add_permanent_claim = FROM
				}
			}
			else = {
				add_dip_power = 100
			}
		}
	}
	g_breaking_the_crown = {
		icon = mission_fortify_rajputana
		position = 5
		required_missions = {
			g_pushing_north
		}
		trigger = {
			amldihr_area = {
				owned_by = FROM
				type = all
			}
			railyard_area = {
				owned_by = FROM
				type = all
			}
		}

		effect = {
			west_breach_area = {
				add_permanent_claim = FROM
			}
			
			south_breach_area = {
				add_permanent_claim = FROM
			}
			orldhum_area = {
				add_permanent_claim = FROM
			}
			country_event = {
				id = railskulker.3
				days = 0
			}
		}
	}
	g_the_frame_of_the_gate = {
		icon = mission_fortify_rajputana
		position = 6
		required_missions = {
			g_breaking_the_crown
		}
		trigger = {
			owns = 2868
		}

		effect = {

			khugdihr_area = {
				add_permanent_claim = FROM
			}
			
			dwarovrod_1_3_area = {
				add_permanent_claim = FROM
			}
			
			snotslair_area = {
				add_permanent_claim = FROM
			}
			orldhum_area = {
				add_permanent_claim = FROM
			}
		}
	}
	g_closing_the_doors = {
		icon = mission_fortify_rajputana
		position = 7
		required_missions = {
			g_the_frame_of_the_gate
		}
		trigger = {
			owns = 2863
			owns = 4096
		}

		effect = {
			west_dwarovar_region = {
				add_permanent_claim = FROM
			}
			if = {
				limit = {
					2863 = {
						NOT = {
							OR = {
								has_building = fort_16th
								has_building = fort_17th
								has_building = fort_18th
							}
						}
					}
				}
				2863 = {
					add_building_construction = {
						building = fort_16th
						speed = 0.5
						cost = 0
					}
				}
			}
			if = {
				limit = {
					4096 = {
						NOT = {
							OR = {
								has_building = fort_16th
								has_building = fort_17th
								has_building = fort_18th
							}
						}
					}
				}
				4096 = {
					add_building_construction = {
						building = fort_16th
						speed = 0.5
						cost = 0
					}
				}
			}
		}
	}
	g_railskulker_ascendant = {
		icon = mission_fortify_rajputana
		position = 8
		required_missions = {
			g_closing_the_doors
			g_greatest_city_in_the_dwarovar
			g_formalizing_our_government
		}
		trigger = {
			total_development = 700
		}

		effect = {
			add_prestige = 100
			add_country_modifier = {
				name = cave_goblin_railskulker
				duration = -1
			}
			#swap_free_idea_group = yes
		}
	}
}

railskulker_column_4 = {
	slot = 4
	generic = no
	ai = yes
	potential = {
		tag = H75
	}
	has_country_shield = yes

	g_drawing_tribute = {
		icon = mission_fortify_rajputana
		position = 1
		required_missions = {

		}
		trigger = {
			owns = 2931
			num_of_cities = 9
		}

		effect = {
			2931 = {
				add_base_tax = 1
				add_base_production = 1
				add_base_manpower = 1
			}
			add_treasury = 100
		}
	}
	g_the_rail_junction_palace = {
		icon = mission_fortify_rajputana
		position = 2
		required_missions = {
			g_drawing_tribute
		}
		trigger = {
			owns = 2931
			2931 = { 
				has_dwarven_hold_2 = yes
			}
		}

		effect = {
			add_prestige = 20
			add_splendor = 100
		}
	}
	g_improving_the_farms = { # I wanna change this one
		icon = mission_fortify_rajputana
		position = 3
		required_missions = {
			g_the_rail_junction_palace
		}
		trigger = {
			railyard_area = {
				owned_by = FROM
				type = all
			}
			dip_power = 150
			adm_power = 150
			mil_power = 150
		}

		effect = {
			add_dip_power = -150
			add_adm_power = -150
			add_mil_power = -150
			2931 = {
				add_base_tax = 2
				add_base_production = 2
				add_base_manpower = 2
			}
			railyard_area = {
				change_trade_goods = fungi
				add_permanent_province_modifier = {
					name = cave_goblin_er_natvir_farms
					duration = -1
				}
			}
		}
	}
	g_roads_for_our_nexus = {
		icon = mission_fortify_rajputana
		position = 4
		required_missions = {
			g_improving_the_farms
		}
		trigger = {
			owns = 2931
			calc_true_if = {
				all_owned_province = {
					has_terrain = dwarven_road
				}
				amount = 25
			}
		}

		effect = {
			2931 = {
				add_permanent_province_modifier = {
					name = cave_goblin_squatter_get_deeper
					duration = 3650
				}
			}
		}
	}
	g_a_deeper_palace = {
		icon = mission_fortify_rajputana
		position = 5
		required_missions = {
			g_roads_for_our_nexus
		}
		trigger = {
			owns = 2931
			2931 = { 
				has_dwarven_hold_3 = yes
			}
		}

		effect = {
			2931 = {
				add_base_tax = 2
				add_base_production = 2
				add_base_manpower = 2
			}
		}
	}
	g_a_fabulous_palace = {
		icon = mission_fortify_rajputana
		position = 6
		required_missions = {
			g_a_deeper_palace
		}
		trigger = {
			owns = 2931
			treasury = 1500
		}

		effect = {
			add_treasury = -1500
			2931 = {
				add_permanent_province_modifier = {
					name = cave_goblin_art_installation
					duration = -1
				}
			}
 
		}
	}
	g_greatest_city_in_the_dwarovar = {
		icon = mission_fortify_rajputana
		position = 7
		required_missions = {
			g_a_fabulous_palace
		}
		trigger = {
			owns = 2931
			2931 = {
				has_building = temple
				has_building = barracks
				has_building = marketplace
				has_building = workshop
				province_has_center_of_trade_of_level = 3
				has_dwarven_hold_4 = yes
			}
		}

		effect = {
			2931 = {
				add_permanent_province_modifier = {
					name = cave_goblin_booming_capital
					duration = 7300
				}
				change_province_name = "Zeledzenu"
			}
		}
	}
}

#these trees show up during the allclan civil war. Replaces generic resurce missions and special warband ones
g_railskulker_civil_war_region_column_4 = { #involves doing stuff with their spawn area
	slot = 4
	generic = no
	ai = yes
	potential = {
		tag = H75
		has_country_modifier = allclan_split
	}
	has_country_shield = yes

    g_establishing_our_clan = {
		icon = mission_fortify_rajputana
		position = 8
		required_missions = {

		}
		trigger = {
			OR = {
				has_country_modifier = allclan_split
			}	
		}
		
		effect = {
			
		}
	}
}
g_railskulker_civil_war_column_5 = {
	slot = 5
	generic = no
	ai = yes
	potential = {
		tag = H75
		has_country_modifier = allclan_split
	}
	has_country_shield = yes

    g_the_great_kinstrife = {
		icon = mission_fortify_rajputana
		position = 1
		required_missions = {

		}
		trigger = {
			has_country_modifier = allclan_split
		}
		
		effect = {
			create_general = {
				tradition = 100
				#add_siege = -1
			}
			override_country_name = ZELEZKLAN # Railway Land
			swap_free_idea_group = yes
		}
	}
}