namespace = flavor_saloren

country_event = {
	id = flavor_saloren.1
	title = flavor_saloren.1.t
	desc = flavor_saloren.1.d
	picture = GOOD_WITH_MONARCH_eventPicture
	
	fire_only_once = yes
	
	trigger = {
		tag = A87 #Saloren
		NOT = { 
			AND = {
				59 = { is_core = A87 }
				40 = { is_core = A87 }
				33 = { is_core = A87 }
				is_year = 1460
			}
		}	
	}
	
	mean_time_to_happen = {
		months = 3
	}
	
	#Swear fealty to Lorent
	option = {
		name = flavor_saloren.1.a
		trigger = { A01 = { owns_or_subject_of = 59 } }
		ai_chance = {
			factor = 60
			modifier = {
				factor = 100
				alliance_with = A01
			}
		}
		
		A01 = { country_event = { id = flavor_saloren.2 } }		
	}
	
	#Align with Wineport
	option = {
		name = flavor_saloren.1.b
		trigger = { A16 = { owns_or_subject_of = 33 } }
		ai_chance = { 
			factor = 20 
			modifier = {
				factor = 100
				alliance_with = A16 
			}
		}
		
		A16 = { country_event = { id = flavor_saloren.3 } }		
	}
	
	#Align with Rubenaire
	option = {
		name = flavor_saloren.1.c
		trigger = { A18 = { owns_or_subject_of = 40 } }
		ai_chance = { 
			factor = 20 
			modifier = {
				factor = 100
				alliance_with = A18
			}
		}
		
		A18 = { country_event = { id = flavor_saloren.4 } }		
	}
	
	#Refuse, but why?
	option = { 
		name = flavor_saloren.1.e
		ai_chance = {
			factor = 0 
		}
	}
}

country_event = {
	id = flavor_saloren.2 #Lorent
	title = flavor_saloren.2.t
	desc = flavor_saloren.2.d
	picture = GOOD_WITH_MONARCH_eventPicture
	
	is_triggered_only = yes
	
	trigger = {	
		always = yes
	}
	
	option = {
		name = flavor_saloren.2.a 
		ai_chance = { factor = 100 }
		create_subject = {
			subject_type = autonomous_vassal
			subject = A87
		}
		add_historical_friend = A87
		A87 = { add_historical_friend = A01 }
		add_historical_friend = A78
		A78 = { add_historical_friend = A01 }
		59 = {
			cede_province = A87
			add_core = A87
			remove_core = A01
		}
		
	}	
	
	option = {
		name = flavor_saloren.2.b
		ai_chance = { factor = 0 }
		A87 = { country_event = { id = flavor_saloren.5 } }
	}
}

country_event = {
	id = flavor_saloren.3 #Wineport
	title = flavor_saloren.3.t
	desc = flavor_saloren.3.d
	picture = GOOD_WITH_MONARCH_eventPicture
	
	is_triggered_only = yes
	
	trigger = {	
		always = yes
	}
	
	option = {
		name = flavor_saloren.3.a
		ai_chance = { factor = 100 }
		add_historical_friend = A87
		A87 = { add_historical_friend = A16 }
		add_historical_friend = A78
		A78 = { add_historical_friend = A16 }
		create_alliance = A87
		if = {
			limit = { 33 = { owner = { is_subject_of = A16 } } }
			33 = { 
				owner = {
					A87 = { vassalize = PREV }
				}
			}
		} else = {
			33 = {
				cede_province = A87
				add_core = A87
				remove_core = A16
			}
		}
	}
	
	option = {
		name = flavor_saloren.3.b
		ai_chance = { factor = 0 }	
		A87 = { country_event = { id = flavor_saloren.5 } }
	}
}

country_event = {
	id = flavor_saloren.4 #Rubenaire
	title = flavor_saloren.4.t
	desc = flavor_saloren.4.d
	picture = GOOD_WITH_MONARCH_eventPicture
	
	is_triggered_only = yes
	
	trigger = {	
		always = yes
	}
	
	option = {
		name = flavor_saloren.4.a
		ai_chance = { factor = 100 }
		add_historical_friend = A87
		A87 = { add_historical_friend = A18 }
		add_historical_friend = A78
		A78 = { add_historical_friend = A18 }
		create_alliance = A87
		40 = {
			cede_province = A87
			add_core = A87
			remove_core = Z05
		}
		
	}
	
	option = {
		name = flavor_saloren.4.b
		ai_chance = { factor = 0 }
		A87 = { country_event = { id = flavor_saloren.5 } }
	}
}

country_event = {
	id = flavor_saloren.5 #Rejected
	title = flavor_saloren.5.t
	desc = flavor_saloren.5.d
	picture = GOOD_WITH_MONARCH_eventPicture
	
	is_triggered_only = yes
	
	trigger = {	
		always = yes
	}
	
	option = {
		name = flavor_saloren.5.a 
		ai_chance = { factor = 100 } 
	}
}

#An Offer from the Vampires
country_event = {
	id = flavor_saloren.6
	title = flavor_saloren.6.t
	desc = flavor_saloren.6.d
	picture = NOBLE_ESTATE_eventPicture
	
	fire_only_once = yes
	
	mean_time_to_happen = {
		years = 1
	}
	
	trigger = {
		tag = A87 #Saloren
		NOT = { is_year = 1460 }	
	}
	
	option = {
		name = flavor_saloren.6.a 
		ai_chance = { factor = 100 }
		add_stability_or_adm_power = yes
	}
	
	option = {
		name = flavor_saloren.6.b
		ai_chance = { factor = 0 }
		hidden_effect = { 
			set_country_flag = has_vampires
			country_event = { id = vampires_estate_events.12 days = 2 }
		}
	}
}